{
  "project_info": {
    "project_number": "554940089136",
    "firebase_url": "https://boids-vs-predators.firebaseio.com",
    "project_id": "boids-vs-predators",
    "storage_bucket": "boids-vs-predators.appspot.com"
  },
  "client": [
    {
      "client_info": {
        "mobilesdk_app_id": "1:554940089136:android:072e204b368873d2",
        "android_client_info": {
          "package_name": "com.swiftappskom.internship.boidsvspredators"
        }
      },
      "oauth_client": [
        {
          "client_id": "554940089136-pi5q7p8m5tpe1f9lrn7m31bei0neg3t3.apps.googleusercontent.com",
          "client_type": 3
        }
      ],
      "api_key": [
        {
          "current_key": "AIzaSyDpS2gxCU2mC_YVNfqCQ9YNHajUOMCt8Q8"
        }
      ],
      "services": {
        "analytics_service": {
          "status": 1
        },
        "appinvite_service": {
          "status": 1,
          "other_platform_oauth_client": []
        },
        "ads_service": {
          "status": 2
        }
      },
      "admob_app_id": "ca-app-pub-7478850733296966~1139902410"
    }
  ],
  "configuration_version": "1"
}